{
  "PORT": {
    "prod": 5000,
    "dev": 4000,
    "ui": 3000
  },
  "DIST": {
    "dir": "../dist/",
    "assetsDir": "",
    "cssDir": "css/",
    "imgDir": "img/",
    "fontsDir": "fonts/",
    "jsDir": "js/",
    "cssDevFile": "dev.css",
    "jsDevFile": "dev.js",
    "cssProdFile": "prod.css",
    "jsProdFile": "prod.js",
    "cssLibFile": "lib.css",
    "jsLibFile": "lib.js"
  },
  "COMPATIBILITY": [
    "last 2 versions",
    "ie >= 9"
  ],
  "PATHS": {
    "styles": [
      "src/styles/index.sass"
    ],
    "scripts": [
      "src/libs/**/*.js",
      "src/utils/js/**/*.js",
      "src/components/**/*.js"
    ]
  }
}